1,0,25,4,58,72,1,1
25,4,1,0,58,72,1,1
1,0,26,5,64,74,1,1
26,5,1,0,64,74,1,1
15,18,1,0,59,72,1,1
1,0,15,18,59,72,1,1
15,18,26,25,30,32,1,1
26,25,15,18,30,32,1,1
15,18,27,25,30,33,1,1
27,25,15,18,30,33,1,1
15,18,24,24,21,25,1,1
24,24,15,18,21,25,1,1
15,18,2,26,15,21,1,1
2,26,15,18,15,21,1,1
15,18,38,36,42,51,1,1
38,36,15,18,42,51,1,1
6,8,5,2,32,47,1,3
5,2,6,8,32,47,1,3
